20

2 2
2
f 0 0 n
f 1 1 e
2 1

3 3
3
r 0 0 s
h 1 1 n
t 2 2 e
5 1

10 1
2
r 0 0 s
f 9 0 s
11 1

2 2
2
f 0 0 n
f 1 1 e
2 2

4 2
4
h 0 0 n
h 3 0 w
h 0 1 w
h 3 1 n
10 1

20 20
20
f 0 0 n
h 0 1 e
r 0 2 w
t 0 3 s
r 0 4 n
h 0 5 w
f 0 6 s
f 0 7 s
t 0 8 s
t 0 9 s
h 0 10 e
h 0 11 e
h 0 12 e
r 0 13 e
r 0 14 n
r 0 15 w
r 0 16 w
f 0 17 w
f 0 18 s
t 0 19 s
100 20

20 20
20
f 19 0 n
h 19 1 e
r 19 2 w
t 19 3 s
r 19 4 n
h 19 5 w
f 19 6 n
f 19 7 n
t 19 8 n
t 19 9 n
h 19 10 e
h 19 11 e
h 19 12 e
r 19 13 e
r 19 14 n
r 19 15 n
r 19 16 n
f 19 17 w
f 19 18 s
t 19 19 s
100 20

1 1
1
r 0 0 e
1 1

1 10
2
r 0 0 w
f 0 9 s
11 1

1 10
3
r 0 0 w
r 0 4 n
f 0 9 s
20 1

1 20
4
r 0 0 w
r 0 4 n
f 0 9 s
t 0 5 e
20 1

20 20
40
f 0 0 n
h 0 1 e
r 0 2 w
t 0 3 s
r 0 4 n
h 0 5 w
f 0 6 s
f 0 7 s
t 0 8 s
t 0 9 s
h 0 10 e
h 0 11 e
h 0 12 e
r 0 13 e
r 0 14 n
r 0 15 w
r 0 16 w
f 0 17 w
f 0 18 s
t 0 19 s
f 19 0 n
h 19 1 e
r 19 2 w
t 19 3 s
r 19 4 n
h 19 5 w
f 19 6 n
f 19 7 n
t 19 8 n
t 19 9 n
h 19 10 e
h 19 11 e
h 19 12 e
r 19 13 e
r 19 14 n
r 19 15 n
r 19 16 n
f 19 17 w
f 19 18 s
t 19 19 s
100 20

1 1
1
h 0 0 e
1 1

5 7
2
r 0 0 e
f 4 6 n
30 3

1 50
3
r 0 25 n
f 0 49 e
f 0 0 s
100 25

7 7
5
r 0 0 n
r 0 6 e
r 6 0 s
r 6 6 w
f 3 3 n
50 5

2 2
5
f 0 0 n
f 0 1 e
f 1 0 w
f 1 1 s
r 0 0 n
10 2

4 4
6
f 0 0 n
f 0 1 e
f 1 0 w
f 1 1 s
r 0 0 n
f 1 0 w
10 2

1 2
2
t 0 0 e
r 0 1 s
4 1

4 5
3
f 0 0 e
t 0 1 n
r 3 4 w
10 1
